%!PS-Adobe-2.0 
%%Creator: MATLAB, The Mathworks, Inc.
%%Title: coh.ps
%%CreationDate: 02/19/ 1  13:50:07
%%DocumentNeededFonts: Helvetica
%%DocumentProcessColors: Cyan Magenta Yellow Black
%%Pages: (atend)
%%BoundingBox: (atend)
%%EndComments

%%BeginProlog

% MathWorks dictionary
/MathWorks 160 dict begin

% definition operators
/bdef {bind def} bind def
/ldef {load def} bind def
/xdef {exch def} bdef
/xstore {exch store} bdef

% operator abbreviations
/c  /clip ldef
/cc /concat ldef
/cp /closepath ldef
/gr /grestore ldef
/gs /gsave ldef
/mt /moveto ldef
/np /newpath ldef
/cm /currentmatrix ldef
/sm /setmatrix ldef
/rc {rectclip} bdef
/rf {rectfill} bdef
/rm /rmoveto ldef
/rl /rlineto ldef
/s /show ldef
/sc {setcmykcolor} bdef
/sr /setrgbcolor ldef
/sg /setgray ldef
/w /setlinewidth ldef
/j /setlinejoin ldef
/cap /setlinecap ldef

% page state control
/pgsv () def
/bpage {/pgsv save def} bdef
/epage {pgsv restore} bdef
/bplot /gsave ldef
/eplot {stroke grestore} bdef

% orientation switch
/portraitMode 	0 def
/landscapeMode 	1 def

% coordinate system mappings
/dpi2point 0 def

% font control
/FontSize 0 def
/FMS {
	/FontSize xstore		%save size off stack
	findfont
	[FontSize 0 0 FontSize neg 0 0]
	makefont
	setfont
	}bdef

/reencode {
exch dup where
{pop load} {pop StandardEncoding} ifelse
exch
dup 3 1 roll
findfont dup length dict begin
  { 1 index /FID ne {def}{pop pop} ifelse } forall
  /Encoding exch def
  currentdict
end
definefont pop
} bdef

/isroman {
findfont /CharStrings get
/Agrave known
} bdef

/FMSR {
3 1 roll 1 index
dup isroman
{reencode} {pop pop} ifelse
exch FMS
} bdef

/csm {
	1 dpi2point div -1 dpi2point div scale
	neg translate
	landscapeMode eq {90 rotate} if
	} bdef

% line types: solid, dotted, dashed, dotdash
/SO { [] 0 setdash } bdef
/DO { [.5 dpi2point mul 4 dpi2point mul] 0 setdash } bdef
/DA { [6 dpi2point mul] 0 setdash } bdef
/DD { [.5 dpi2point mul 4 dpi2point mul 6 dpi2point mul 4 dpi2point mul] 0 setdash } bdef

% macros for lines and objects
/L {
	lineto
	stroke
	} bdef
/MP {
	3 1 roll moveto
	1 sub {rlineto} repeat
	} bdef
/AP {
	{rlineto} repeat
	} bdef
/PP {
	closepath eofill
	} bdef
/DP {
	closepath stroke
	} bdef
/MR {
	4 -2 roll moveto
	dup  0 exch rlineto
	exch 0 rlineto
	neg  0 exch rlineto
	closepath
	} bdef
/FR {
	MR stroke
	} bdef
/PR {
	MR fill
	} bdef
/L1i {
	{ currentfile picstr readhexstring pop } image
	} bdef

/tMatrix matrix def
/MakeOval {
	newpath
	tMatrix currentmatrix pop
	translate scale
	0 0 1 0 360 arc
	tMatrix setmatrix
	} bdef
/FO {
	MakeOval
	stroke
	} bdef
/PO {
	MakeOval
	fill
	} bdef

/PD {
	currentlinecap 1 setlinecap 3 1 roll 2 copy moveto lineto stroke setlinecap
	} bdef

/FA {
	newpath
	tMatrix currentmatrix pop
	translate scale
	0 0 1 5 -2 roll arc
	tMatrix setmatrix
	stroke
	} bdef
/PA {
	newpath
	tMatrix currentmatrix pop
	translate 0 0 moveto scale
	0 0 1 5 -2 roll arc
	closepath
	tMatrix setmatrix
	fill
	} bdef

/FAn {
	newpath
	tMatrix currentmatrix pop
	translate scale
	0 0 1 5 -2 roll arcn
	tMatrix setmatrix
	stroke
	} bdef
/PAn {
	newpath
	tMatrix currentmatrix pop
	translate 0 0 moveto scale
	0 0 1 5 -2 roll arcn
	closepath
	tMatrix setmatrix
	fill
	} bdef

/vradius 0 def
/hradius 0 def
/lry 0 def
/lrx 0 def
/uly 0 def
/ulx 0 def
/rad 0 def

/MRR {
	/vradius xdef
	/hradius xdef
	/lry xdef
	/lrx xdef
	/uly xdef
	/ulx xdef
	newpath
	tMatrix currentmatrix pop
	ulx hradius add uly vradius add translate
	hradius vradius scale
	0 0 1 180 270 arc 
	tMatrix setmatrix
	lrx hradius sub uly vradius add translate
	hradius vradius scale
	0 0 1 270 360 arc
	tMatrix setmatrix
	lrx hradius sub lry vradius sub translate
	hradius vradius scale
	0 0 1 0 90 arc
	tMatrix setmatrix
	ulx hradius add lry vradius sub translate
	hradius vradius scale
	0 0 1 90 180 arc
	tMatrix setmatrix
	closepath
	} bdef
/FRR {
	MRR stroke } bdef
/PRR {
	MRR fill } bdef

/MlrRR {
	/lry xdef
	/lrx xdef
	/uly xdef
	/ulx xdef
	/rad lry uly sub 2 div def
	newpath
	tMatrix currentmatrix pop
	ulx rad add uly rad add translate
	rad rad scale
	0 0 1 90 270 arc
	tMatrix setmatrix
	lrx rad sub lry rad sub translate
	rad rad scale
	0 0 1 270 90 arc
	tMatrix setmatrix
	closepath
	} bdef
/FlrRR {
	MlrRR stroke } bdef
/PlrRR {
	MlrRR fill } bdef

/MtbRR {
	/lry xdef
	/lrx xdef
	/uly xdef
	/ulx xdef
	/rad lrx ulx sub 2 div def
	newpath
	tMatrix currentmatrix pop
	ulx rad add uly rad add translate
	rad rad scale
	0 0 1 180 360 arc
	tMatrix setmatrix
	lrx rad sub lry rad sub translate
	rad rad scale
	0 0 1 0 180 arc
	tMatrix setmatrix
	closepath
	} bdef
/FtbRR {
	MtbRR stroke } bdef
/PtbRR {
	MtbRR fill } bdef

currentdict end def
%%EndProlog

%%BeginSetup
MathWorks begin

0 cap

end
%%EndSetup

%%Page: 1 1
%%BeginPageSetup
%%PageBoundingBox:    71   197   550   589
MathWorks begin
bpage
%%EndPageSetup

%%BeginObject: obj1
bplot

/dpi2point 12 def
portraitMode 0216 7344 csm

  641   273  5751  4700 MR c np
93 dict begin %Colortable dictionary
/c0 { 0 0 0 sr} bdef
/c1 { 1 1 1 sr} bdef
/c2 { 1 0 0 sr} bdef
/c3 { 0 1 0 sr} bdef
/c4 { 0 0 1 sr} bdef
/c5 { 1 1 0 sr} bdef
/c6 { 1 0 1 sr} bdef
/c7 { 0 1 1 sr} bdef
c0
1 j
1 sg
   0    0 6913 5191 PR
6 w
0 4229 5355 0 0 -4229 899 4618 4 MP
PP
-5355 0 0 4229 5355 0 0 -4229 899 4618 5 MP stroke
4 w
DO
SO
6 w
0 sg
 899 4618 mt 6254 4618 L
 899  389 mt 6254  389 L
 899 4618 mt  899  389 L
6254 4618 mt 6254  389 L
 899 4618 mt 6254 4618 L
 899 4618 mt  899  389 L
 899 4618 mt  899 4591 L
 899  389 mt  899  416 L
 899 4618 mt  899 4564 L
 899  389 mt  899  443 L
%%IncludeResource: font Helvetica
/Helvetica /ISOLatin1Encoding 120 FMSR

 787 4801 mt 
(10) s
%%IncludeResource: font Helvetica
/Helvetica /ISOLatin1Encoding 80 FMSR

 920 4727 mt 
(-1) s
1302 4618 mt 1302 4591 L
1302  389 mt 1302  416 L
1538 4618 mt 1538 4591 L
1538  389 mt 1538  416 L
1705 4618 mt 1705 4591 L
1705  389 mt 1705  416 L
1835 4618 mt 1835 4591 L
1835  389 mt 1835  416 L
1941 4618 mt 1941 4591 L
1941  389 mt 1941  416 L
2030 4618 mt 2030 4591 L
2030  389 mt 2030  416 L
2108 4618 mt 2108 4591 L
2108  389 mt 2108  416 L
2176 4618 mt 2176 4591 L
2176  389 mt 2176  416 L
2238 4618 mt 2238 4591 L
2238  389 mt 2238  416 L
2238 4618 mt 2238 4564 L
2238  389 mt 2238  443 L
%%IncludeResource: font Helvetica
/Helvetica /ISOLatin1Encoding 120 FMSR

2150 4801 mt 
(10) s
%%IncludeResource: font Helvetica
/Helvetica /ISOLatin1Encoding 80 FMSR

2283 4727 mt 
(0) s
2641 4618 mt 2641 4591 L
2641  389 mt 2641  416 L
2876 4618 mt 2876 4591 L
2876  389 mt 2876  416 L
3044 4618 mt 3044 4591 L
3044  389 mt 3044  416 L
3173 4618 mt 3173 4591 L
3173  389 mt 3173  416 L
3279 4618 mt 3279 4591 L
3279  389 mt 3279  416 L
3369 4618 mt 3369 4591 L
3369  389 mt 3369  416 L
3447 4618 mt 3447 4591 L
3447  389 mt 3447  416 L
3515 4618 mt 3515 4591 L
3515  389 mt 3515  416 L
3577 4618 mt 3577 4591 L
3577  389 mt 3577  416 L
3577 4618 mt 3577 4564 L
3577  389 mt 3577  443 L
%%IncludeResource: font Helvetica
/Helvetica /ISOLatin1Encoding 120 FMSR

3489 4801 mt 
(10) s
%%IncludeResource: font Helvetica
/Helvetica /ISOLatin1Encoding 80 FMSR

3622 4727 mt 
(1) s
3980 4618 mt 3980 4591 L
3980  389 mt 3980  416 L
4215 4618 mt 4215 4591 L
4215  389 mt 4215  416 L
4383 4618 mt 4383 4591 L
4383  389 mt 4383  416 L
4512 4618 mt 4512 4591 L
4512  389 mt 4512  416 L
4618 4618 mt 4618 4591 L
4618  389 mt 4618  416 L
4708 4618 mt 4708 4591 L
4708  389 mt 4708  416 L
4786 4618 mt 4786 4591 L
4786  389 mt 4786  416 L
4854 4618 mt 4854 4591 L
4854  389 mt 4854  416 L
4915 4618 mt 4915 4591 L
4915  389 mt 4915  416 L
4915 4618 mt 4915 4564 L
4915  389 mt 4915  443 L
%%IncludeResource: font Helvetica
/Helvetica /ISOLatin1Encoding 120 FMSR

4827 4801 mt 
(10) s
%%IncludeResource: font Helvetica
/Helvetica /ISOLatin1Encoding 80 FMSR

4960 4727 mt 
(2) s
5318 4618 mt 5318 4591 L
5318  389 mt 5318  416 L
5554 4618 mt 5554 4591 L
5554  389 mt 5554  416 L
5721 4618 mt 5721 4591 L
5721  389 mt 5721  416 L
5851 4618 mt 5851 4591 L
5851  389 mt 5851  416 L
5957 4618 mt 5957 4591 L
5957  389 mt 5957  416 L
6047 4618 mt 6047 4591 L
6047  389 mt 6047  416 L
6124 4618 mt 6124 4591 L
6124  389 mt 6124  416 L
6193 4618 mt 6193 4591 L
6193  389 mt 6193  416 L
6254 4618 mt 6254 4591 L
6254  389 mt 6254  416 L
6254 4618 mt 6254 4564 L
6254  389 mt 6254  443 L
%%IncludeResource: font Helvetica
/Helvetica /ISOLatin1Encoding 120 FMSR

6166 4801 mt 
(10) s
%%IncludeResource: font Helvetica
/Helvetica /ISOLatin1Encoding 80 FMSR

6299 4727 mt 
(3) s
 899 4618 mt  953 4618 L
6254 4618 mt 6200 4618 L
%%IncludeResource: font Helvetica
/Helvetica /ISOLatin1Encoding 120 FMSR

 798 4662 mt 
(0) s
 899 4014 mt  953 4014 L
6254 4014 mt 6200 4014 L
 698 4058 mt 
(0.2) s
 899 3410 mt  953 3410 L
6254 3410 mt 6200 3410 L
 698 3454 mt 
(0.4) s
 899 2806 mt  953 2806 L
6254 2806 mt 6200 2806 L
 698 2850 mt 
(0.6) s
 899 2201 mt  953 2201 L
6254 2201 mt 6200 2201 L
 698 2245 mt 
(0.8) s
 899 1597 mt  953 1597 L
6254 1597 mt 6200 1597 L
 798 1641 mt 
(1) s
 899  993 mt  953  993 L
6254  993 mt 6200  993 L
 698 1037 mt 
(1.2) s
 899  389 mt  953  389 L
6254  389 mt 6200  389 L
 698  433 mt 
(1.4) s
 899 4618 mt 6254 4618 L
 899  389 mt 6254  389 L
 899 4618 mt  899  389 L
6254 4618 mt 6254  389 L
gs 899 389 5356 4230 MR c np
4 -6 5 -17 5 -22 4 -22 5 -17 5 -10 5 -5 4 -1 
5 2 5 5 5 8 5 12 5 15 5 15 5 12 6 4 
5 -5 5 -14 5 -23 6 -29 5 -25 6 -11 5 5 6 13 
5 12 6 6 6 -3 5 -16 6 -25 6 -26 6 -20 6 -20 
6 -34 6 -58 7 -82 6 -92 6 -74 7 -24 6 36 7 75 
6 82 7 68 7 49 7 41 7 46 7 47 7 26 7 16 
8 26 7 30 7 20 8 5 8 6 8 25 7 13 8 -42 
9 -29 8 13 8 24 9 11 8 -3 9 -3 9 1 9 -59 
9 -99 9 -14 10 51 9 58 10 43 10 34 10 68 11 121 
10 -56 11 -178 11 -28 11 47 11 46 11 20 12 11 12 85 
12 216 13 -334 13 -292 13 23 13 84 14 57 14 19 14 31 
15 343 15 1287 16 -1956 15 -155 17 198 17 187 17 117 18 38 
18 -47 19 -300 20 -1364 3782 3843 100 MP stroke
21 142 21 519 22 366 22 148 24 -141 25 -613 26 -962 27 907 
28 161 30 -318 31 -214 34 75 35 199 37 217 41 220 43 219 
46 199 51 169 55 162 61 174 69 165 78 133 89 93 106 60 
130 37 167 22 236 13 403 7 1824 1684 29 MP stroke
gr

3444 4944 mt 
(rad/s) s

end

eplot
%%EndObject

epage
end

showpage

%%Trailer
%%BoundingBox:    71   197   550   589
%%Pages: 001
%%EOF
